…
    ## Rows: 35 Columns: 1443
    ## ── Column specification ────────────────────────────────────────────────────────
    ## Delimiter: ","
    ## chr    (1): day
    ## dbl (1442): week, day_id, activity.1, activity.2, activity.3, activity.4, ac...
    ## 
    ## ℹ Use `spec()` to retrieve the full column specification for this data.
    ## ℹ Specify the column types or set `show_col_types = FALSE` to quiet this message.

``` r
acc_data
```

    ## # A tibble: 35 × 1,443
    ##    week day_id day      activi…¹ activ…² activ…³ activ…⁴ activ…⁵ activ…⁶ activ…⁷
    ##   <dbl>  <dbl> <chr>       <dbl>   <dbl>   <dbl>   <dbl>   <dbl>   <dbl>   <dbl>
    ## 1     1      1 Friday       88.4    82.2    64.4    70.0    75.0    66.3    53.8
    ## 2     1      2 Monday        1       1       1       1       1       1       1  
    ## 3     1      3 Saturday      1       1       1       1       1       1       1  
    ## 4     1      4 Sunday        1       1       1       1       1       1       1  
    ## 5     1      5 Thursday     47.4    48.8    46.9    35.8    49.0    44.8    73.4
    ## # … with 30 more rows, 1,433 more variables: activity_8 <dbl>,
    ## #   activity_9 <dbl>, activity_10 <dbl>, activity_11 <dbl>, activity_12 <dbl>,
    ## #   activity_13 <dbl>, activity_14 <dbl>, activity_15 <dbl>, activity_16 <dbl>,
    ## #   activity_17 <dbl>, activity_18 <dbl>, activity_19 <dbl>, activity_20 <dbl>,
    ## #   activity_21 <dbl>, activity_22 <dbl>, activity_23 <dbl>, activity_24 <dbl>,
    ## #   activity_25 <dbl>, activity_26 <dbl>, activity_27 <dbl>, activity_28 <dbl>,
    ## #   activity_29 <dbl>, activity_30 <dbl>, activity_31 <dbl>, …
…
  mutate(
    weekday_or_weekend = ifelse(day=='Saturday' | day=='Sunday', "weekend", "weekday")
    ) %>% 
  mutate(
    week = as.integer(week),
    day_id = as.integer(day_id),
    day = factor(day,levels= c("Monday", 
    "Tuesday", "Wednesday", "Thursday", "Friday", "Saturday","Sunday")),
    weekday_or_weekend = factor(weekday_or_weekend)
) %>% 
  select(week:day,weekday_or_weekend,everything())
acc_data_tidy
```

    ## # A tibble: 50,400 × 6
    ##    week day_id day    weekday_or_weekend activity_minute activity_count
    ##   <int>  <int> <fct>  <fct>              <chr>                    <dbl>
    ## 1     1      1 Friday weekday            1                         88.4
    ## 2     1      1 Friday weekday            2                         82.2
    ## 3     1      1 Friday weekday            3                         64.4
    ## 4     1      1 Friday weekday            4                         70.0
    ## 5     1      1 Friday weekday            5                         75.0
    ## # … with 50,395 more rows
…
# Problem 3

First, load the data:

``` r
library(p8105.datasets)
data("ny_noaa")
ny_noaa
```

    ## # A tibble: 2,595,176 × 7
    ##   id          date        prcp  snow  snwd tmax  tmin 
    ##   <chr>       <date>     <int> <int> <int> <chr> <chr>
    ## 1 US1NYAB0001 2007-11-01    NA    NA    NA <NA>  <NA> 
    ## 2 US1NYAB0001 2007-11-02    NA    NA    NA <NA>  <NA> 
    ## 3 US1NYAB0001 2007-11-03    NA    NA    NA <NA>  <NA> 
    ## 4 US1NYAB0001 2007-11-04    NA    NA    NA <NA>  <NA> 
    ## 5 US1NYAB0001 2007-11-05    NA    NA    NA <NA>  <NA> 
    ## # … with 2,595,171 more rows
…
``` r
ny_noaa_tidy = 
  ny_noaa %>% 
  separate(date,c('year','month','day'),sep='-') %>%
  mutate(
    year = as.integer(year),
    month = as.integer(month),
    day = as.integer(day)
  ) %>% 
  mutate(month = month.abb[month]) %>% 
  mutate(tmax = as.integer(tmax), tmin = as.integer(tmin))
ny_noaa_tidy
```

    ## # A tibble: 2,595,176 × 9
    ##   id           year month   day  prcp  snow  snwd  tmax  tmin
    ##   <chr>       <int> <chr> <int> <int> <int> <int> <int> <int>
    ## 1 US1NYAB0001  2007 Nov       1    NA    NA    NA    NA    NA
    ## 2 US1NYAB0001  2007 Nov       2    NA    NA    NA    NA    NA
    ## 3 US1NYAB0001  2007 Nov       3    NA    NA    NA    NA    NA
    ## 4 US1NYAB0001  2007 Nov       4    NA    NA    NA    NA    NA
    ## 5 US1NYAB0001  2007 Nov       5    NA    NA    NA    NA    NA
    ## # … with 2,595,171 more rows
…
